\relax 
\citation{alginahi2013survey}
\citation{amin1998off}
\citation{zheng2004new}
\citation{margner1992sarat}
\citation{azmi2001new}
\citation{gouda2004segmentation}
\citation{touj2007two}
\@writefile{toc}{\contentsline {section}{\numberline {1}Introduction}{1}}
\providecommand*\caption@xref[2]{\@setref\relax\@undefined{#1}}
\newlabel{Fig:shapes}{{1a}{1}}
\newlabel{sub@Fig:shapes}{{a}{1}}
\newlabel{Fig:horlig}{{1b}{1}}
\newlabel{sub@Fig:horlig}{{b}{1}}
\newlabel{Fig:verlig}{{1c}{1}}
\newlabel{sub@Fig:verlig}{{c}{1}}
\newlabel{Fig:threshold}{{1d}{1}}
\newlabel{sub@Fig:threshold}{{d}{1}}
\newlabel{Fig:threshold2}{{1e}{1}}
\newlabel{sub@Fig:threshold2}{{e}{1}}
\newlabel{Fig:win_scale}{{1f}{1}}
\newlabel{sub@Fig:win_scale}{{f}{1}}
\newlabel{Fig:win_over}{{1g}{1}}
\newlabel{sub@Fig:win_over}{{g}{1}}
\@writefile{lof}{\contentsline {figure}{\numberline {1}{\ignorespaces \subref  {Fig:shapes}) Different shapes of two characters. \subref  {Fig:horlig}-\subref  {Fig:verlig}) Horizontal and vertical ligatures. \subref  {Fig:threshold}) Threshold over-segmentation in left character. \subref  {Fig:threshold2}) Threshold over-segmentation in right character, and under-segmentation in the middle. \subref  {Fig:win_scale}) Character context and scale. \subref  {Fig:win_over}) Small window over-segmentation effect.\relax }}{1}}
\citation{ngiam2011multimodal}
\citation{lecun1998gradient}
\citation{srivastava2013improving}
\citation{simard2003best}
\@writefile{toc}{\contentsline {section}{\numberline {2}Proposed Architecture}{2}}
\citation{lecun1998gradient}
\citation{glorot2011deep}
\citation{srivastava2013improving}
\citation{ngiam2011multimodal}
\@writefile{lof}{\contentsline {figure}{\numberline {2}{\ignorespaces  Multichannel neural network for Arabic segmentation.\relax }}{3}}
\newlabel{Fig:model}{{2}{3}}
\@writefile{toc}{\contentsline {subsection}{\numberline {2.1}The Convolutional Channels}{3}}
\citation{simard2003best}
\@writefile{toc}{\contentsline {subsection}{\numberline {2.2}The Fully Connected Layer}{4}}
\@writefile{toc}{\contentsline {section}{\numberline {3}Model Evaluation}{4}}
\@writefile{toc}{\contentsline {subsection}{\numberline {3.1}Data Generation}{4}}
\newlabel{Fig:segment}{{3a}{5}}
\newlabel{sub@Fig:segment}{{a}{5}}
\newlabel{Fig:word1}{{3b}{5}}
\newlabel{sub@Fig:word1}{{b}{5}}
\newlabel{Fig:seg_plot}{{3c}{5}}
\newlabel{sub@Fig:seg_plot}{{c}{5}}
\newlabel{Fig:classzero}{{3d}{5}}
\newlabel{sub@Fig:classzero}{{d}{5}}
\newlabel{Fig:classone}{{3e}{5}}
\newlabel{sub@Fig:classone}{{e}{5}}
\@writefile{lof}{\contentsline {figure}{\numberline {3}{\ignorespaces \subref  {Fig:segment}) Finding ground truth of segmentation. Data are extracted from (\subref  {Fig:word1}) by sliding window. Function in (\subref  {Fig:seg_plot}) is used for assigning labels. Examples in (\subref  {Fig:classzero}) are labelled as -0.5, (\subref  {Fig:classone}) are of labels greater than 0.\relax }}{5}}
\@writefile{lot}{\contentsline {table}{\numberline {1}{\ignorespaces Resulting of loss values and (Acc $L>0$) accuracy of a test data with labels greater than $0$.\relax }}{5}}
\newlabel{Tab:results}{{1}{5}}
\@writefile{toc}{\contentsline {subsection}{\numberline {3.2}Experimental results}{5}}
\bibstyle{unsrt}
\bibdata{arabic_deep}
\bibcite{alginahi2013survey}{1}
\bibcite{amin1998off}{2}
\bibcite{zheng2004new}{3}
\bibcite{margner1992sarat}{4}
\bibcite{azmi2001new}{5}
\bibcite{gouda2004segmentation}{6}
\bibcite{touj2007two}{7}
\bibcite{ngiam2011multimodal}{8}
\bibcite{lecun1998gradient}{9}
\bibcite{srivastava2013improving}{10}
\bibcite{simard2003best}{11}
\bibcite{glorot2011deep}{12}
\newlabel{Fig:result}{{4a}{6}}
\newlabel{sub@Fig:result}{{a}{6}}
\newlabel{Fig:grid1}{{4b}{6}}
\newlabel{sub@Fig:grid1}{{b}{6}}
\newlabel{Fig:grid2}{{4c}{6}}
\newlabel{sub@Fig:grid2}{{c}{6}}
\@writefile{lof}{\contentsline {figure}{\numberline {4}{\ignorespaces \subref  {Fig:result}) Segmentation of a document using the model. \subref  {Fig:grid1}) Segments of words that have maximal neural respone in left channel, and right channel in (\subref  {Fig:grid2}). \relax }}{6}}
\newlabel{Fig:maximal}{{4}{6}}
\@writefile{toc}{\contentsline {section}{\numberline {4}Conclusion}{6}}
